IC_III/Parte_1/waveform.vcd
$date
  Sun Apr 06 18:55:00 2025
$end
$version
  GHDL v0
$end
$timescale
  1 fs
$end
$scope module standard $end
$upscope $end
$scope module std_logic_1164 $end
$upscope $end
$scope module numeric_std $end
$upscope $end
$scope module tb_funciones_logicas $end
$var reg 1 ! x $end
$var reg 1 " y $end
$var reg 1 # z $end
$var reg 1 $ f_beh $end
$var reg 1 % g_beh $end
$var reg 1 & f_struct $end
$var reg 1 ' g_struct $end
$var reg 3 ( test_vector[2:0] $end
$scope module dut_beh $end
$var reg 1 ) x $end
$var reg 1 * y $end
$var reg 1 + z $end
$var reg 1 , f $end
$var reg 1 - g $end
$upscope $end
$scope module dut_struct $end
$var reg 1 . x $end
$var reg 1 / y $end
$var reg 1 0 z $end
$var reg 1 1 f $end
$var reg 1 2 g $end
$var reg 1 3 not_x $end
$var reg 1 4 not_y $end
$var reg 1 5 not_z $end
$var reg 1 6 xy $end
$var reg 1 7 xz $end
$var reg 1 8 yz $end
$var reg 1 9 xy_notz $end
$var reg 1 : xyz_notz $end
$var reg 1 ; tmp_f1 $end
$var reg 1 < tmp_f2 $end
$var reg 1 = tmp_g1 $end
$scope module u1 $end
$var reg 1 > a $end
$var reg 1 ? y $end
$upscope $end
$scope module u2 $end
$var reg 1 @ a $end
$var reg 1 A y $end
$upscope $end
$scope module u3 $end
$var reg 1 B a $end
$var reg 1 C y $end
$upscope $end
$scope module u4 $end
$var reg 1 D a $end
$var reg 1 E b $end
$var reg 1 F y $end
$upscope $end
$scope module u5 $end
$var reg 1 G a $end
$var reg 1 H b $end
$var reg 1 I y $end
$upscope $end
$scope module u6 $end
$var reg 1 J a $end
$var reg 1 K b $end
$var reg 1 L y $end
$upscope $end
$scope module u7 $end
$var reg 1 M a $end
$var reg 1 N b $end
$var reg 1 O y $end
$upscope $end
$scope module u8 $end
$var reg 1 P a $end
$var reg 1 Q b $end
$var reg 1 R y $end
$upscope $end
$scope module u9 $end
$var reg 1 S a $end
$var reg 1 T b $end
$var reg 1 U y $end
$upscope $end
$scope module u10 $end
$var reg 1 V a $end
$var reg 1 W b $end
$var reg 1 X y $end
$upscope $end
$scope module u11 $end
$var reg 1 Y a $end
$var reg 1 Z b $end
$var reg 1 [ y $end
$upscope $end
$scope module u12 $end
$var reg 1 \ a $end
$var reg 1 ] b $end
$var reg 1 ^ y $end
$upscope $end
$scope module u13 $end
$var reg 1 _ a $end
$var reg 1 ` b $end
$var reg 1 a y $end
$upscope $end
$upscope $end
$upscope $end
$enddefinitions $end
#0
0!
0"
0#
1$
0%
1&
0'
b000 (
0)
0*
0+
1,
0-
0.
0/
00
11
02
13
14
15
06
07
08
09
0:
0;
1<
0=
0>
1?
0@
1A
0B
1C
0D
1E
0F
0G
1H
0I
0J
0K
0L
0M
1N
0O
0P
1Q
1R
1S
0T
1U
1V
0W
0X
0Y
0Z
0[
0\
0]
0^
0_
0`
0a
#20000000
1#
1%
1'
b001 (
1+
1-
10
12
05
17
1=
1B
0C
0H
0N
1W
1X
1Z
1]
1^
1_
1a
#40000000
1"
0#
0%
0'
b010 (
1*
0+
0-
1/
00
02
04
15
07
0=
1@
0A
0B
1C
0E
1H
1K
1N
0W
0X
1Y
0Z
0]
0^
0_
0a
#60000000
1#
1%
1'
b011 (
1+
1-
10
12
05
17
18
1=
1B
0C
0H
0N
1W
1X
1Z
1[
1]
1^
1_
1`
1a
#80000000
1!
0"
0#
0%
1&
0'
b100 (
1)
0*
0+
0-
1.
0/
00
11
02
03
14
15
07
08
19
1;
1<
0=
1>
0?
0@
1A
0B
1C
1D
1E
1F
1G
1H
1I
1J
0K
1N
1P
0Q
1R
1S
1U
0V
0W
0X
0Y
0Z
0[
0]
0^
0_
0`
0a
#100000000
1#
0$
0&
b101 (
1+
0,
10
01
05
09
0<
1B
0C
0H
0I
0N
0P
0R
0S
0U
1W
1Z
#120000000
1"
0#
1$
1%
1&
1'
b110 (
1*
0+
1,
1-
1/
00
11
12
04
15
16
09
1:
0;
0<
1=
1@
0A
0B
1C
0E
0F
0G
1H
0I
1K
1L
1M
1N
1O
0P
0R
0S
1T
1U
0W
1Y
0Z
1\
1^
1_
1a
#140000000
1#
0$
0&
b111 (
1+
0,
10
01
05
18
0:
1B
0C
0H
0N
0O
0T
0U
1W
1Z
1[
1`
